#!/usr/bin/env bash

##############################################################################
##
##  "${applicationName}" Hadoop start up script for UN*X
##
##############################################################################

if [ -z "\$1" ]; then
  echo "Main class argument not passed. Will run default main class"
  MAIN_CLASS="<% if (mainClassName) print mainClassName %>"
else
  MAIN_CLASS="\$1"
fi
echo "Will run hadoop job with main class \$MAIN_CLASS"

# Determine base directory of script
# resolve all weird cases of symlinks
# see http://stackoverflow.com/questions/59895/can-a-bash-script-tell-what-directory-its-stored-in
SOURCE="\${BASH_SOURCE[0]}"
while [ -h "\$SOURCE" ]; do # resolve \$SOURCE until the file is no longer a symlink
  DIR="\$( cd -P "\$( dirname "\$SOURCE" )" && pwd )"
  SOURCE="\$(readlink "\$SOURCE")"
  [[ \$SOURCE != /* ]] && SOURCE="\$DIR/\$SOURCE" # if \$SOURCE was a relative symlink, we need to resolve it relative to the path where the symlink file was located
done
DIR="\$( cd -P "\$( dirname "\$SOURCE" )" && pwd )"

cd \$DIR

APP_NAME="${applicationName}"
HADOOP_LIBJARS="${hadoopLibjars}"
<% if (exportHadoopClasspath) print "export HADOOP_CLASSPATH=\"${exportHadoopClasspath}\"\n"
%>
exec hadoop jar "${appJar}" "\${MAIN_CLASS}" -libjars "\${HADOOP_LIBJARS}" "\$@"
